{
    "appName": "Convene",
    "appNames": {
        "bo": "ཀེ་ཨ་ནུ་དྲ་གནས།",
        "si": "කීනු වෙබ්ලයිට්",
        "zh_Hans": "网络灯"
    },
    "productLink": "letsconvene.im",
    "defaultServer": "https://letsconvene.im",
    "rtl": false,
    "analytics": {
        "enabled": true,
        "config": {
            "server": "https://metrics.cleaninsights.org/cleaninsights.php",
            "siteId": 14,
            "timeout": 5,
            "persistEveryNTimes": 1,
            "debug": true,
            "campaigns": {
                "beta": {
                    "start": "2021-01-01T00:00:00-00:00",
                    "end": "2021-12-31T23:59:59-00:00",
                    "aggregationPeriodLength": 1,
                    "numberOfPeriods": 90,
                    "onlyRecordOnce": false,
                    "eventAggregationRule": "avg"
                }
            }
        }
    }
}
