<svg width="40" height="40" viewBox="0 0 40 40" fill="none" xmlns="http://www.w3.org/2000/svg">
<path fill-rule="evenodd" clip-rule="evenodd" d="M7.50218 5.00012C5.44631 5.00012 3.74485 6.69181 3.74485 8.74768V20.9547L1.38401 25.6886C0.969002 26.5188 1.57156 27.4958 2.49974 27.4977H11.2473V31.2526C11.2473 33.3084 12.9488 35.0001 15.0046 35.0001H17.5046C19.1729 35.0001 19.1729 32.4977 17.5046 32.4977H15.0046C14.2905 32.4977 13.7473 31.9666 13.7473 31.2526V27.4977H27.4973C29.5532 27.4977 31.2522 25.806 31.2522 23.7501V15.0026H34.9997C35.7138 15.0026 36.2546 15.5361 36.2546 16.2501V31.2526C36.2546 31.9666 35.7138 32.4977 34.9997 32.4977H27.4973C25.829 32.4977 25.829 35.0001 27.4973 35.0001H34.9997C37.0556 35.0001 38.7449 33.3084 38.7449 31.2526V16.2501C38.7449 14.1942 37.0556 12.5026 34.9997 12.5026H31.2522V8.74768C31.2522 6.69181 29.5532 5.00012 27.4973 5.00012H7.50218ZM7.50218 7.50256H27.4973C28.2114 7.50256 28.7522 8.03359 28.7522 8.74768V23.7501C28.7522 24.4642 28.2114 24.9952 27.4973 24.9952H4.52122L6.1179 21.8141C6.20454 21.6388 6.24886 21.4456 6.24729 21.2501V8.74768C6.24729 8.03359 6.78811 7.50256 7.50218 7.50256ZM12.3728 12.5026C10.7431 12.6219 10.8689 15.0522 12.5022 15.0026H17.5046C19.1357 14.9673 19.1357 12.5378 17.5046 12.5026H12.5022C12.4591 12.5003 12.4159 12.5003 12.3728 12.5026ZM12.3777 17.5026C12.376 17.5034 12.3744 17.5042 12.3728 17.5051C10.7446 17.6257 10.8703 20.0532 12.5022 20.0051H22.4949C24.1994 20.0433 24.1994 17.4668 22.4949 17.5051H12.5022C12.4607 17.5022 12.4192 17.5013 12.3777 17.5026H12.3777ZM22.4997 32.5001C21.8094 32.5001 21.2497 33.0598 21.2497 33.7501C21.2497 34.4405 21.8094 35.0001 22.4997 35.0001C23.1901 35.0001 23.7497 34.4405 23.7497 33.7501C23.7497 33.0598 23.1901 32.5001 22.4997 32.5001Z" fill="#536DFE"/>
</svg>
