<svg width="40" height="40" viewBox="0 0 40 40" fill="none" xmlns="http://www.w3.org/2000/svg">
<path d="M30.2777 18.3851V13.3333C30.2777 13.0386 30.1607 12.756 29.9523 12.5476C29.7439 12.3392 29.4613 12.2222 29.1666 12.2222C28.8719 12.2222 28.5893 12.3392 28.3809 12.5476C28.1726 12.756 28.0555 13.0386 28.0555 13.3333V18.3851C28.0555 20.5216 27.2068 22.5706 25.6961 24.0813C24.1854 25.592 22.1364 26.4407 19.9999 26.4407C17.8635 26.4407 15.8145 25.592 14.3038 24.0813C12.7931 22.5706 11.9444 20.5216 11.9444 18.3851V13.3333C11.9444 13.0386 11.8273 12.756 11.619 12.5476C11.4106 12.3392 11.128 12.2222 10.8333 12.2222C10.5386 12.2222 10.256 12.3392 10.0476 12.5476C9.83923 12.756 9.72217 13.0386 9.72217 13.3333V18.3851C9.7252 20.9178 10.6619 23.3605 12.3532 25.2458C14.0444 27.1311 16.3713 28.3266 18.8888 28.6037V30.5555H15.3703C14.0933 30.5555 12.8687 31.0628 11.9657 31.9657C11.0628 32.8687 10.5555 34.0933 10.5555 35.3703V36.6666C10.5555 36.9613 10.6726 37.2439 10.8809 37.4523C11.0893 37.6607 11.3719 37.7777 11.6666 37.7777H28.3333C28.628 37.7777 28.9106 37.6607 29.119 37.4523C29.3273 37.2439 29.4444 36.9613 29.4444 36.6666V35.3703C29.4444 34.0933 28.9371 32.8687 28.0342 31.9657C27.1312 31.0628 25.9065 30.5555 24.6296 30.5555H21.1111V28.6037C23.6286 28.3266 25.9555 27.1311 27.6467 25.2458C29.338 23.3605 30.2747 20.9178 30.2777 18.3851ZM24.6296 32.7777C25.3172 32.7777 25.9766 33.0509 26.4628 33.5371C26.949 34.0233 27.2222 34.6827 27.2222 35.3703V35.5555H12.7777V35.3703C12.7777 34.6827 13.0509 34.0233 13.5371 33.5371C14.0233 33.0509 14.6827 32.7777 15.3703 32.7777H24.6296Z" fill="#536DFE"/>
<path d="M19.9998 24.4445C21.6199 24.4426 23.1732 23.7981 24.3188 22.6524C25.4645 21.5068 26.1089 19.9536 26.1109 18.3334V8.3334C26.1109 6.71263 25.467 5.15825 24.321 4.01219C23.1749 2.86614 21.6206 2.22229 19.9998 2.22229C18.379 2.22229 16.8246 2.86614 15.6786 4.01219C14.5325 5.15825 13.8887 6.71263 13.8887 8.3334V18.3334C13.8906 19.9536 14.5351 21.5068 15.6807 22.6524C16.8264 23.7981 18.3796 24.4426 19.9998 24.4445ZM16.1109 14.4445H17.3664C17.6611 14.4445 17.9438 14.3274 18.1521 14.1191C18.3605 13.9107 18.4776 13.6281 18.4776 13.3334C18.4776 13.0387 18.3605 12.7561 18.1521 12.5477C17.9438 12.3394 17.6611 12.2223 17.3664 12.2223H16.1109V9.44451H17.3664C17.6611 9.44451 17.9438 9.32745 18.1521 9.11908C18.3605 8.9107 18.4776 8.62809 18.4776 8.3334C18.4776 8.03872 18.3605 7.7561 18.1521 7.54773C17.9438 7.33935 17.6611 7.22229 17.3664 7.22229H16.2553C16.4951 6.4204 16.9871 5.71725 17.6584 5.21732C18.3297 4.7174 19.1443 4.44737 19.9813 4.44737C20.8182 4.44737 21.6329 4.7174 22.3041 5.21732C22.9754 5.71725 23.4674 6.4204 23.7072 7.22229H22.5961C22.3014 7.22229 22.0188 7.33935 21.8104 7.54773C21.602 7.7561 21.485 8.03872 21.485 8.3334C21.485 8.62809 21.602 8.9107 21.8104 9.11908C22.0188 9.32745 22.3014 9.44451 22.5961 9.44451H23.8887V12.2223H22.6331C22.3384 12.2223 22.0558 12.3394 21.8474 12.5477C21.6391 12.7561 21.522 13.0387 21.522 13.3334C21.522 13.6281 21.6391 13.9107 21.8474 14.1191C22.0558 14.3274 22.3384 14.4445 22.6331 14.4445H23.8887V17.2223H22.6331C22.3384 17.2223 22.0558 17.3394 21.8474 17.5477C21.6391 17.7561 21.522 18.0387 21.522 18.3334C21.522 18.6281 21.6391 18.9107 21.8474 19.1191C22.0558 19.3274 22.3384 19.4445 22.6331 19.4445H23.7442C23.5045 20.2464 23.0124 20.9496 22.3412 21.4495C21.6699 21.9494 20.8553 22.2194 20.0183 22.2194C19.1813 22.2194 18.3667 21.9494 17.6954 21.4495C17.0242 20.9496 16.5321 20.2464 16.2924 19.4445H17.4035C17.6982 19.4445 17.9808 19.3274 18.1892 19.1191C18.3975 18.9107 18.5146 18.6281 18.5146 18.3334C18.5146 18.0387 18.3975 17.7561 18.1892 17.5477C17.9808 17.3394 17.6982 17.2223 17.4035 17.2223H16.1109V14.4445Z" fill="#536DFE"/>
</svg>
